{
  "id": "object",
  "filePrefix": "string",
  "headerInFile": true,
  "templateType": "object",
  "fileColumns": [
    {
      "openLmisField": true,
      "dataFieldLabel": "object",
      "columnLabel": "Name",
      "include": true,
      "position": 1,
      "format": "string",
      "nested": "string",
      "keyPath": "string",
      "related": "string",
      "relatedKeyPath": "string"
    }
  ]
}