{
  "type": "object",
  "$schema": "http://json-schema.org/draft-04/schema",
  "title": "Collection",
  "description": "Paginated collection",
  "properties": {
    "content": {
      "type": "array",
      "items": { "type": "object", "$ref": "requisitionBudgetDto.json" }
    },
    "totalPages": { "type": "integer", "title": "totalPages" },
    "totalElements": { "type": "integer", "title": "totalElements" },
    "size": { "type": "integer", "title": "size" },
    "number": { "type": "integer", "title": "number" },
    "numberOfElements": { "type": "integer", "title": "numberOfElements" },
    "last": { "type": "boolean", "title": "last" },
    "first": { "type": "boolean", "title": "first" },
    "sort?": {
      "title": "sort",
      "type": "array",
      "items": { "type": "object" }
    }
  },
  "required": ["content" , "totalPages" , "totalElements", "size", "number" , "numberOfElements" , "first" , "last"]
}
