{
  "type": "object",
  "$schema": "http://json-schema.org/draft-04/schema",
  "title": "UploadResult",
  "description": "An entity representing result of successful file upload also amount represent the total number of rows imported",
  "properties": {
    "amount": {
      "type": "number",
      "title": "amount"
    }
  },
  "required": ["amount"]
}
